{
  "artifactGenerations" : [ ],
  "artifactId" : "redshift2",
  "groupId" : "org.finos.legend.redshifttest",
  "metamodelDependencies" : [ ],
  "projectDependencies" : [ ],
  "projectId" : "",
  "projectStructureVersion" : {
    "extensionVersion" : null,
    "version" : 0
  },
  "projectType" : "PRODUCTION"
}